{
  "description": "The first official NFT drop of Optimism Prime, we aim to make something fun for our beloved community, giveaway prizes and have a great time! Each Autobot minted will have specific traits that are linked to one of our partner projects.",
  "image": "https://purple-necessary-salamander-572.mypinata.cloud/ipfs/QmQEWA2GMK6xJdxG9dtxEJnvvtcyQa5jxYu6tYQdKjCWv1/604.png",
  "name": "Autobot #604",
  "attributes": [
    {
      "trait_type": "Background",
      "value": "Desert"
    },
    {
      "trait_type": "Pattern",
      "value": "Leopard"
    },
    {
      "trait_type": "Body",
      "value": "Optimism"
    },
    {
      "trait_type": "Mask",
      "value": "Beethoven"
    },
    {
      "trait_type": "HandLeft",
      "value": "Mecha Sword"
    },
    {
      "trait_type": "HandRight",
      "value": "Bear Trap"
    }
  ]
}