{
  "description": "The first official NFT drop of Optimism Prime, we aim to make something fun for our beloved community, giveaway prizes and have a great time! Each Autobot minted will have specific traits that are linked to one of our partner projects.",
  "image": "https://purple-necessary-salamander-572.mypinata.cloud/ipfs/QmPhwP4iEALGdNxJjQNAY4WQjTLkFK2PvrHYHyPMJB5QF4/756.png",
  "name": "Autobot #756",
  "attributes": [
    {
      "trait_type": "Background",
      "value": "Zen Garden"
    },
    {
      "trait_type": "Pattern",
      "value": "Leopard"
    },
    {
      "trait_type": "Body",
      "value": "None"
    },
    {
      "trait_type": "Mask",
      "value": "None"
    },
    {
      "trait_type": "HandLeft",
      "value": "Mecha Sword"
    },
    {
      "trait_type": "HandRight",
      "value": "Energy Shield"
    }
  ]
}