{
  "description": "The first official NFT drop of Optimism Prime, we aim to make something fun for our beloved community, giveaway prizes and have a great time! Each Autobot minted will have specific traits that are linked to one of our partner projects.",
  "image": "https://purple-necessary-salamander-572.mypinata.cloud/ipfs/Qme4z95CG1EoL9Ti3JE6D9LBXu3HDfAEwWjjEnVpFSeG4Y/994.png",
  "name": "Autobot #994",
  "attributes": [
    {
      "trait_type": "Background",
      "value": "Jungle"
    },
    {
      "trait_type": "Pattern",
      "value": "Velodrome"
    },
    {
      "trait_type": "Body",
      "value": "Bone Armour"
    },
    {
      "trait_type": "Mask",
      "value": "Bull"
    },
    {
      "trait_type": "HandLeft",
      "value": "Mecha Sword"
    },
    {
      "trait_type": "HandRight",
      "value": "Light Saber"
    }
  ]
}